Lista9/marie.vcd
$date
  Thu Jun 22 17:17:41 2017
$end
$version
  GHDL v0
$end
$timescale
  1 fs
$end
$var reg 9 ! conn_bus[8:0] $end
$var reg 9 " address_bus[8:0] $end
$var reg 9 # alu_bus[8:0] $end
$var reg 1 $ f_re $end
$var reg 1 % f_en $end
$var reg 1 & endoffile $end
$var reg 1 ' mem_en $end
$var reg 1 ( mem_we $end
$var reg 1 ) pc_en $end
$var reg 2 * pc_state[1:0] $end
$var reg 1 + reg_ld $end
$var reg 1 , reg_en $end
$var reg 1 - reg_clr $end
$var reg 9 . reg_val[8:0] $end
$var reg 1 / reg_from_alu $end
$var reg 1 0 alu_op $end
$var reg 6 1 con_state[5:0] $end
$var reg 9 2 con_q[8:0] $end
$var reg 4 3 con_curr_cmd[3:0] $end
$var reg 1 4 clk $end
$scope module filehandle_uut $end
$var reg 1 5 re $end
$var reg 1 6 en $end
$var reg 1 7 endoffile $end
$var reg 9 8 conn_bus[8:0] $end
$var reg 9 9 dataread[8:0] $end
$upscope $end
$scope module ram_uut $end
$var reg 1 : we $end
$var reg 1 ; en $end
$var reg 9 < address_bus[8:0] $end
$var reg 9 = conn_bus[8:0] $end
$comment data is not handled $end
$upscope $end
$scope module pc_uut $end
$var reg 1 > clk $end
$var reg 1 ? en $end
$var reg 2 @ state[1:0] $end
$var reg 9 A conn_bus[8:0] $end
$var reg 9 B address_bus[8:0] $end
$var reg 9 C current_address[8:0] $end
$upscope $end
$scope module reg_uut $end
$var reg 1 D clk $end
$var reg 1 E ld $end
$var reg 1 F from_alu $end
$var reg 1 G en $end
$var reg 1 H clr $end
$var reg 9 I alu_bus[8:0] $end
$var reg 9 J conn_bus[8:0] $end
$var reg 9 K curr_reg[8:0] $end
$var reg 9 L acc_reg[8:0] $end
$upscope $end
$scope module alu_uut $end
$var reg 1 M op $end
$var reg 9 N acc_bus[8:0] $end
$var reg 9 O conn_bus[8:0] $end
$var reg 9 P acc_result[8:0] $end
$upscope $end
$scope module con_uut $end
$var reg 1 Q clk $end
$var reg 9 R conn_bus[8:0] $end
$var reg 6 S state[5:0] $end
$var reg 9 T vq[8:0] $end
$var reg 4 U v_current_cmd[3:0] $end
$var reg 1 V f_re $end
$var reg 1 W f_en $end
$var reg 1 X end_of_file $end
$var reg 1 Y mem_we $end
$var reg 1 Z mem_en $end
$var reg 1 [ pc_en $end
$var reg 2 \ pc_state[1:0] $end
$var reg 9 ] acc_val[8:0] $end
$var reg 1 ^ acc_en $end
$var reg 1 _ acc_ld $end
$var reg 1 ` acc_from_alu $end
$var reg 1 a alu_op $end
$comment current_state is not handled $end
$comment next_state is not handled $end
$var reg 6 b v_state[5:0] $end
$var reg 2 c v_twobit[1:0] $end
$comment current_cmd is not handled $end
$var reg 9 d q[8:0] $end
$var reg 1 e en $end
$var reg 9 f result_reg[8:0] $end
$var reg 1 g sending $end
$var reg 1 h reading $end
$var reg 9 i instruction_number[8:0] $end
$var reg 1 j restore_address $end
$var reg 9 k current_reg[8:0] $end
$upscope $end
$enddefinitions $end
#0
bZZZZZZZZZ !
b000000000 "
b000000000 #
U$
U%
0&
0'
U(
0)
bUU *
0+
0,
0-
b000000000 .
0/
U0
b000001 1
b000000000 2
b0000 3
04
U5
U6
07
bZZZZZZZZZ 8
b000000000 9
U:
0;
b000000000 <
bZZZZZZZZZ =
0>
0?
bUU @
bZZZZZZZZZ A
b000000000 B
b000000000 C
0D
0E
0F
0G
0H
b000000000 I
bZZZZZZZZZ J
b000000000 K
b000000000 L
UM
b000000000 N
bZZZZZZZZZ O
b000000000 P
0Q
bZZZZZZZZZ R
b000001 S
b000000000 T
b0000 U
UV
UW
0X
UY
0Z
0[
bUU \
b000000000 ]
0^
0_
0`
Ua
b000001 b
b00 c
b000000000 d
1e
b000000000 f
0g
0h
b000000000 i
0j
b000000000 k
#10000000
b000100100 !
1$
1%
b000010 1
bZZZZZZZZZ 2
14
15
16
b000100100 8
b000100100 9
b000100100 =
1>
b000100100 A
1D
b000100100 J
b000100100 O
1Q
b000100100 R
b000010 S
bZZZZZZZZZ T
1V
1W
b000010 b
bZZZZZZZZZ d
1h
#20000000
04
0>
0D
0Q
#30000000
bZZZZZZZZZ !
0$
0%
1(
b000100 1
b000100100 2
14
05
06
bZZZZZZZZZ 8
1:
bZZZZZZZZZ =
1>
bZZZZZZZZZ A
1D
bZZZZZZZZZ J
bZZZZZZZZZ O
1Q
bZZZZZZZZZ R
b000100 S
b000100100 T
0V
0W
1Y
b000100 b
b000100100 d
#40000000
04
0>
0D
0Q
#50000000
0(
1)
b01 *
b001000 1
bZZZZZZZZZ 2
14
0:
1>
1?
b01 @
1D
1Q
b001000 S
bZZZZZZZZZ T
0Y
1[
b01 \
b001000 b
bZZZZZZZZZ d
#60000000
04
0>
0D
0Q
#70000000
b000000001 "
0)
b00 *
b010000 1
14
b000000001 <
1>
0?
b00 @
b000000001 B
b000000001 C
1D
1Q
b010000 S
0[
b00 \
b010000 b
0h
#80000000
04
0>
0D
0Q
#90000000
b000001 1
14
1>
1D
1Q
b000001 S
b000001 b
#100000000
04
0>
0D
0Q
#110000000
b010000100 !
1$
1%
b000010 1
14
15
16
b010000100 8
b010000100 9
b010000100 =
1>
b010000100 A
1D
b010000100 J
b010000100 O
1Q
b010000100 R
b000010 S
1V
1W
b000010 b
1h
#120000000
04
0>
0D
0Q
#130000000
bZZZZZZZZZ !
0$
0%
1(
b000100 1
b010000100 2
14
05
06
bZZZZZZZZZ 8
1:
bZZZZZZZZZ =
1>
bZZZZZZZZZ A
1D
bZZZZZZZZZ J
bZZZZZZZZZ O
1Q
bZZZZZZZZZ R
b000100 S
b010000100 T
0V
0W
1Y
b000100 b
b010000100 d
#140000000
04
0>
0D
0Q
#150000000
0(
1)
b01 *
b001000 1
bZZZZZZZZZ 2
14
0:
1>
1?
b01 @
1D
1Q
b001000 S
bZZZZZZZZZ T
0Y
1[
b01 \
b001000 b
bZZZZZZZZZ d
#160000000
04
0>
0D
0Q
#170000000
b000000010 "
0)
b00 *
b010000 1
14
b000000010 <
1>
0?
b00 @
b000000010 B
b000000010 C
1D
1Q
b010000 S
0[
b00 \
b010000 b
0h
#180000000
04
0>
0D
0Q
#190000000
b000001 1
14
1>
1D
1Q
b000001 S
b000001 b
#200000000
04
0>
0D
0Q
#210000000
b011000000 !
1$
1%
b000010 1
14
15
16
b011000000 8
b011000000 9
b011000000 =
1>
b011000000 A
1D
b011000000 J
b011000000 O
1Q
b011000000 R
b000010 S
1V
1W
b000010 b
1h
#220000000
04
0>
0D
0Q
#230000000
bZZZZZZZZZ !
0$
0%
1(
b000100 1
b011000000 2
14
05
06
bZZZZZZZZZ 8
1:
bZZZZZZZZZ =
1>
bZZZZZZZZZ A
1D
bZZZZZZZZZ J
bZZZZZZZZZ O
1Q
bZZZZZZZZZ R
b000100 S
b011000000 T
0V
0W
1Y
b000100 b
b011000000 d
#240000000
04
0>
0D
0Q
#250000000
0(
1)
b01 *
b001000 1
bZZZZZZZZZ 2
14
0:
1>
1?
b01 @
1D
1Q
b001000 S
bZZZZZZZZZ T
0Y
1[
b01 \
b001000 b
bZZZZZZZZZ d
#260000000
04
0>
0D
0Q
#270000000
b000000011 "
0)
b00 *
b010000 1
14
b000000011 <
1>
0?
b00 @
b000000011 B
b000000011 C
1D
1Q
b010000 S
0[
b00 \
b010000 b
0h
#280000000
04
0>
0D
0Q
#290000000
b000001 1
14
1>
1D
1Q
b000001 S
b000001 b
#300000000
04
0>
0D
0Q
#310000000
b011100000 !
1$
1%
b000010 1
14
15
16
b011100000 8
b011100000 9
b011100000 =
1>
b011100000 A
1D
b011100000 J
b011100000 O
1Q
b011100000 R
b000010 S
1V
1W
b000010 b
1h
#320000000
04
0>
0D
0Q
#330000000
bZZZZZZZZZ !
0$
0%
1(
b000100 1
b011100000 2
14
05
06
bZZZZZZZZZ 8
1:
bZZZZZZZZZ =
1>
bZZZZZZZZZ A
1D
bZZZZZZZZZ J
bZZZZZZZZZ O
1Q
bZZZZZZZZZ R
b000100 S
b011100000 T
0V
0W
1Y
b000100 b
b011100000 d
#340000000
04
0>
0D
0Q
#350000000
0(
1)
b01 *
b001000 1
bZZZZZZZZZ 2
14
0:
1>
1?
b01 @
1D
1Q
b001000 S
bZZZZZZZZZ T
0Y
1[
b01 \
b001000 b
bZZZZZZZZZ d
#360000000
04
0>
0D
0Q
#370000000
b000000100 "
0)
b00 *
b010000 1
14
b000000100 <
1>
0?
b00 @
b000000100 B
b000000100 C
1D
1Q
b010000 S
0[
b00 \
b010000 b
0h
#380000000
04
0>
0D
0Q
#390000000
b000001 1
14
1>
1D
1Q
b000001 S
b000001 b
#400000000
04
0>
0D
0Q
#410000000
b000011111 !
1$
1%
b000010 1
14
15
16
b000011111 8
b000011111 9
b000011111 =
1>
b000011111 A
1D
b000011111 J
b000011111 O
1Q
b000011111 R
b000010 S
1V
1W
b000010 b
1h
#420000000
04
0>
0D
0Q
#430000000
bZZZZZZZZZ !
0$
0%
1(
b000100 1
b000011111 2
14
05
06
bZZZZZZZZZ 8
1:
bZZZZZZZZZ =
1>
bZZZZZZZZZ A
1D
bZZZZZZZZZ J
bZZZZZZZZZ O
1Q
bZZZZZZZZZ R
b000100 S
b000011111 T
0V
0W
1Y
b000100 b
b000011111 d
#440000000
04
0>
0D
0Q
#450000000
0(
1)
b01 *
b001000 1
bZZZZZZZZZ 2
14
0:
1>
1?
b01 @
1D
1Q
b001000 S
bZZZZZZZZZ T
0Y
1[
b01 \
b001000 b
bZZZZZZZZZ d
#460000000
04
0>
0D
0Q
#470000000
b000000101 "
0)
b00 *
b010000 1
14
b000000101 <
1>
0?
b00 @
b000000101 B
b000000101 C
1D
1Q
b010000 S
0[
b00 \
b010000 b
0h
#480000000
04
0>
0D
0Q
#490000000
b000001 1
14
1>
1D
1Q
b000001 S
b000001 b
#500000000
04
0>
0D
0Q
#510000000
b000011111 !
1$
1%
1&
b000010 1
14
15
16
17
b000011111 8
b000011111 =
1>
b000011111 A
1D
b000011111 J
b000011111 O
1Q
b000011111 R
b000010 S
1V
1W
1X
b000010 b
1h
#520000000
04
0>
0D
0Q
#530000000
bZZZZZZZZZ !
0$
0%
1)
b11 *
b000100 1
b000011111 2
14
05
06
bZZZZZZZZZ 8
bZZZZZZZZZ =
1>
1?
b11 @
bZZZZZZZZZ A
1D
bZZZZZZZZZ J
bZZZZZZZZZ O
1Q
bZZZZZZZZZ R
b000100 S
b000011111 T
0V
0W
1[
b11 \
b000100 b
b000011111 d
#540000000
04
0>
0D
0Q
#550000000
b000000000 "
0)
b000010 1
bZZZZZZZZZ 2
14
b000000000 <
1>
0?
b000000000 B
b000000000 C
1D
1Q
b000010 S
bZZZZZZZZZ T
0[
b000010 b
bZZZZZZZZZ d
0h
#560000000
04
0>
0D
0Q
#570000000
b000001 1
14
1>
1D
1Q
b000001 S
b000001 b
#580000000
04
0>
0D
0Q
#590000000
b000100100 !
1'
b000010 1
14
b000100100 8
1;
b000100100 =
1>
b000100100 A
1D
b000100100 J
b000100100 O
1Q
b000100100 R
b000010 S
1Z
b000010 b
#600000000
04
0>
0D
0Q
#610000000
bZZZZZZZZZ !
0'
b000100 1
b000100100 2
b0001 3
14
bZZZZZZZZZ 8
0;
bZZZZZZZZZ =
1>
bZZZZZZZZZ A
1D
bZZZZZZZZZ J
bZZZZZZZZZ O
1Q
bZZZZZZZZZ R
b000100 S
b000100100 T
b0001 U
0Z
b000100 b
b000100100 d
b000000001 i
b000100100 k
#620000000
04
0>
0D
0Q
#630000000
b000000100 !
1)
b10 *
b001000 1
bZZZZZZZZZ 2
14
b000000100 8
b000000100 =
1>
1?
b10 @
b000000100 A
1D
b000000100 J
b000000100 O
1Q
b000000100 R
b001000 S
bZZZZZZZZZ T
1[
b10 \
b001000 b
bZZZZZZZZZ d
b000000100 f
1g
#640000000
04
0>
0D
0Q
#650000000
b000011111 !
b000000100 "
1'
0)
1+
b010000 1
b000000100 2
14
b000011111 8
1;
b000000100 <
b000011111 =
1>
0?
b000011111 A
b000000100 B
b000000100 C
1D
1E
b000011111 J
b000011111 O
1Q
b000011111 R
b010000 S
b000000100 T
1Z
0[
1_
b010000 b
b000000100 d
0g
1j
#660000000
04
0>
0D
0Q
#670000000
b000000001 !
0'
1)
0+
b000011111 .
b000001 1
b000011111 2
14
b000000001 8
0;
b000000001 =
1>
1?
b000000001 A
1D
0E
b000000001 J
b000011111 K
b000011111 L
b000011111 N
b000000001 O
1Q
b000000001 R
b000001 S
b000011111 T
0Z
1[
b000011111 ]
0_
b000001 b
b000011111 d
b000000001 f
1g
#680000000
04
0>
0D
0Q
#690000000
b010000100 !
b000000001 "
1'
0)
b00 *
b000010 1
b000000001 2
14
b010000100 8
1;
b000000001 <
b010000100 =
1>
0?
b00 @
b010000100 A
b000000001 B
b000000001 C
1D
b010000100 J
b010000100 O
1Q
b010000100 R
b000010 S
b000000001 T
1Z
0[
b00 \
b000010 b
b000000001 d
0g
0j
#700000000
04
0>
0D
0Q
#710000000
bZZZZZZZZZ !
0'
b000100 1
b010000100 2
b0100 3
14
bZZZZZZZZZ 8
0;
bZZZZZZZZZ =
1>
bZZZZZZZZZ A
1D
bZZZZZZZZZ J
bZZZZZZZZZ O
1Q
bZZZZZZZZZ R
b000100 S
b010000100 T
b0100 U
0Z
b000100 b
b010000100 d
b000000010 i
b010000100 k
#720000000
04
0>
0D
0Q
#730000000
b000000100 !
1)
b10 *
b001000 1
bZZZZZZZZZ 2
14
b000000100 8
b000000100 =
1>
1?
b10 @
b000000100 A
1D
b000000100 J
b000000100 O
1Q
b000000100 R
b001000 S
bZZZZZZZZZ T
1[
b10 \
b001000 b
bZZZZZZZZZ d
b000000100 f
1g
#740000000
04
0>
0D
0Q
#750000000
b000011111 !
b000000100 "
b000000000 #
1'
0)
1+
1/
00
b010000 1
b000000100 2
14
b000011111 8
1;
b000000100 <
b000011111 =
1>
0?
b000011111 A
b000000100 B
b000000100 C
1D
1E
1F
b000000000 I
b000011111 J
0M
b000011111 O
b000000000 P
1Q
b000011111 R
b010000 S
b000000100 T
1Z
0[
1_
1`
0a
b010000 b
b000000100 d
0g
1j
#760000000
04
0>
0D
0Q
#770000000
b000000010 !
b000000010 #
0'
1)
0+
b000000000 .
0/
b000001 1
b000011111 2
14
b000000010 8
0;
b000000010 =
1>
1?
b000000010 A
1D
0E
0F
b000000010 I
b000000010 J
b000000000 K
b000000000 L
b000000000 N
b000000010 O
b000000010 P
1Q
b000000010 R
b000001 S
b000011111 T
0Z
1[
b000000000 ]
0_
0`
b000001 b
b000011111 d
b000000010 f
1g
#780000000
04
0>
0D
0Q
#790000000
b011000000 !
b000000010 "
b011000000 #
1'
0)
b00 *
b000010 1
b000000010 2
14
b011000000 8
1;
b000000010 <
b011000000 =
1>
0?
b00 @
b011000000 A
b000000010 B
b000000010 C
1D
b011000000 I
b011000000 J
b011000000 O
b011000000 P
1Q
b011000000 R
b000010 S
b000000010 T
1Z
0[
b00 \
b000010 b
b000000010 d
0g
0j
#800000000
04
0>
0D
0Q
#810000000
bZZZZZZZZZ !
bXXXXXXXXX #
0'
1)
b01 *
b000100 1
b011000000 2
b0110 3
14
bZZZZZZZZZ 8
0;
bZZZZZZZZZ =
1>
1?
b01 @
bZZZZZZZZZ A
1D
bXXXXXXXXX I
bZZZZZZZZZ J
bZZZZZZZZZ O
bXXXXXXXXX P
1Q
bZZZZZZZZZ R
b000100 S
b011000000 T
b0110 U
0Z
1[
b01 \
b000100 b
b011000000 d
b000000011 i
b011000000 k
#820000000
04
0>
0D
0Q
#830000000
b000000000 !
b000000011 "
b000000000 #
0)
b00 *
1,
b001000 1
bZZZZZZZZZ 2
14
b000000000 8
b000000011 <
b000000000 =
1>
0?
b00 @
b000000000 A
b000000011 B
b000000011 C
1D
1G
b000000000 I
b000000000 J
b000000000 O
b000000000 P
1Q
b000000000 R
b001000 S
bZZZZZZZZZ T
0[
b00 \
1^
b001000 b
bZZZZZZZZZ d
#840000000
04
0>
0D
0Q
#850000000
b010000 1
b000000000 2
14
1>
1D
1Q
b010000 S
b000000000 T
b010000 b
b000000000 d
#860000000
04
0>
0D
0Q
#870000000
bZZZZZZZZZ !
bXXXXXXXXX #
0,
b000001 1
14
bZZZZZZZZZ 8
bZZZZZZZZZ =
1>
bZZZZZZZZZ A
1D
0G
bXXXXXXXXX I
bZZZZZZZZZ J
bZZZZZZZZZ O
bXXXXXXXXX P
1Q
bZZZZZZZZZ R
b000001 S
0^
b000001 b
#880000000
04
0>
0D
0Q
#890000000
b011100000 !
b011100000 #
1'
b000010 1
bZZZZZZZZZ 2
14
b011100000 8
1;
b011100000 =
1>
b011100000 A
1D
b011100000 I
b011100000 J
b011100000 O
b011100000 P
1Q
b011100000 R
b000010 S
bZZZZZZZZZ T
1Z
b000010 b
bZZZZZZZZZ d
#900000000
04
0>
0D
0Q
#910000000
bZZZZZZZZZ !
bXXXXXXXXX #
0'
b000100 1
b011100000 2
b0111 3
14
bZZZZZZZZZ 8
0;
bZZZZZZZZZ =
1>
bZZZZZZZZZ A
1D
bXXXXXXXXX I
bZZZZZZZZZ J
bZZZZZZZZZ O
bXXXXXXXXX P
1Q
bZZZZZZZZZ R
b000100 S
b011100000 T
b0111 U
0Z
b000100 b
b011100000 d
b000000100 i
b011100000 k
#920000000
04
0>
0D
0Q
#930000000
b001000 1
bZZZZZZZZZ 2
14
1>
1D
1Q
b001000 S
bZZZZZZZZZ T
b001000 b
bZZZZZZZZZ d
0e
#940000000
04
0>
0D
0Q
#950000000
b000001 1
14
1>
1D
1Q
b000001 S
b000001 b
