Lista3/zad3/lfsr.vcd
$date
  Wed Mar 22 20:24:34 2017
$end
$version
  GHDL v0
$end
$timescale
  1 fs
$end
$var reg 1 ! clk $end
$var reg 1 " show $end
$var reg 16 # qq[15:0] $end
$scope module uut $end
$var reg 1 $ clk $end
$var reg 1 % show $end
$var reg 16 & q[15:0] $end
$upscope $end
$enddefinitions $end
#0
0!
0"
b0000000000000000 #
0$
0%
b0000000000000000 &
#10000000
1!
b0000000000000001 #
1$
b0000000000000001 &
#20000000
0!
0$
#30000000
1!
b0000000000000011 #
1$
b0000000000000011 &
#40000000
0!
0$
#50000000
1!
b0000000000000111 #
1$
b0000000000000111 &
#60000000
0!
0$
#70000000
1!
b0000000000001111 #
1$
b0000000000001111 &
#80000000
0!
0$
#90000000
1!
b0000000000011111 #
1$
b0000000000011111 &
#100000000
0!
1"
0$
1%
#110000000
1!
1$
#120000000
0!
0"
0$
0%
#130000000
1!
b0000000000111110 #
1$
b0000000000111110 &
#140000000
0!
0$
#150000000
1!
b0000000001111100 #
1$
b0000000001111100 &
#160000000
0!
0$
#170000000
1!
b0000000011111000 #
1$
b0000000011111000 &
#180000000
0!
0$
#190000000
1!
b0000000111110000 #
1$
b0000000111110000 &
#200000000
0!
0$
#210000000
1!
b0000001111100000 #
1$
b0000001111100000 &
#220000000
0!
1"
0$
1%
#230000000
1!
1$
#240000000
0!
0"
0$
0%
#250000000
1!
b0000011111000001 #
1$
b0000011111000001 &
#260000000
0!
0$
#270000000
1!
b0000111110000011 #
1$
b0000111110000011 &
#280000000
0!
0$
#290000000
1!
b0001111100000111 #
1$
b0001111100000111 &
#300000000
0!
0$
#310000000
1!
b0011111000001111 #
1$
b0011111000001111 &
#320000000
0!
0$
#330000000
1!
b0111110000011110 #
1$
b0111110000011110 &
#340000000
0!
1"
0$
1%
#350000000
1!
1$
#360000000
0!
0"
0$
0%
#370000000
1!
b1111100000111100 #
1$
b1111100000111100 &
#380000000
0!
0$
#390000000
1!
b1111000001111001 #
1$
b1111000001111001 &
#400000000
0!
0$
#410000000
1!
b1110000011110011 #
1$
b1110000011110011 &
#420000000
0!
0$
#430000000
1!
b1100000111100111 #
1$
b1100000111100111 &
#440000000
0!
0$
#450000000
1!
b1000001111001111 #
1$
b1000001111001111 &
#460000000
0!
1"
0$
1%
#470000000
1!
1$
#480000000
0!
0"
0$
0%
#490000000
1!
b0000011110011110 #
1$
b0000011110011110 &
#500000000
0!
0$
#510000000
1!
b0000111100111100 #
1$
b0000111100111100 &
#520000000
0!
0$
#530000000
1!
b0001111001111000 #
1$
b0001111001111000 &
#540000000
0!
0$
#550000000
1!
b0011110011110000 #
1$
b0011110011110000 &
#560000000
0!
0$
#570000000
1!
b0111100111100001 #
1$
b0111100111100001 &
#580000000
0!
1"
0$
1%
#590000000
1!
1$
#600000000
0!
0"
0$
0%
#610000000
1!
b1111001111000011 #
1$
b1111001111000011 &
#620000000
0!
0$
#630000000
1!
b1110011110000110 #
1$
b1110011110000110 &
#640000000
0!
0$
#650000000
1!
b1100111100001100 #
1$
b1100111100001100 &
#660000000
0!
0$
#670000000
1!
b1001111000011001 #
1$
b1001111000011001 &
#680000000
0!
0$
#690000000
1!
b0011110000110011 #
1$
b0011110000110011 &
#700000000
0!
1"
0$
1%
#710000000
1!
1$
#720000000
0!
0"
0$
0%
#730000000
1!
b0111100001100111 #
1$
b0111100001100111 &
#740000000
0!
0$
#750000000
1!
b1111000011001111 #
1$
b1111000011001111 &
#760000000
0!
0$
#770000000
1!
b1110000110011110 #
1$
b1110000110011110 &
#780000000
0!
0$
#790000000
1!
b1100001100111101 #
1$
b1100001100111101 &
#800000000
0!
0$
#810000000
1!
b1000011001111010 #
1$
b1000011001111010 &
#820000000
0!
1"
0$
1%
#830000000
1!
1$
#840000000
0!
0"
0$
0%
#850000000
1!
b0000110011110101 #
1$
b0000110011110101 &
#860000000
0!
0$
#870000000
1!
b0001100111101010 #
1$
b0001100111101010 &
#880000000
0!
0$
#890000000
1!
b0011001111010101 #
1$
b0011001111010101 &
#900000000
0!
0$
#910000000
1!
b0110011110101011 #
1$
b0110011110101011 &
#920000000
0!
0$
#930000000
1!
b1100111101010111 #
1$
b1100111101010111 &
#940000000
0!
1"
0$
1%
#950000000
1!
1$
#960000000
0!
0"
0$
0%
#970000000
1!
b1001111010101110 #
1$
b1001111010101110 &
#980000000
0!
0$
#990000000
1!
b0011110101011100 #
1$
b0011110101011100 &
#1000000000
0!
0$
#1010000000
1!
b0111101010111001 #
1$
b0111101010111001 &
#1020000000
0!
0$
#1030000000
1!
b1111010101110010 #
1$
b1111010101110010 &
#1040000000
0!
0$
#1050000000
1!
b1110101011100101 #
1$
b1110101011100101 &
#1060000000
0!
1"
0$
1%
#1070000000
1!
1$
#1080000000
0!
0"
0$
0%
#1090000000
1!
b1101010111001010 #
1$
b1101010111001010 &
#1100000000
0!
0$
#1110000000
1!
b1010101110010101 #
1$
b1010101110010101 &
#1120000000
0!
0$
#1130000000
1!
b0101011100101010 #
1$
b0101011100101010 &
#1140000000
0!
0$
#1150000000
1!
b1010111001010100 #
1$
b1010111001010100 &
#1160000000
0!
0$
#1170000000
1!
b0101110010101000 #
1$
b0101110010101000 &
#1180000000
0!
1"
0$
1%
#1190000000
1!
1$
#1200000000
0!
0"
0$
0%
#1210000000
1!
b1011100101010000 #
1$
b1011100101010000 &
#1220000000
0!
0$
#1230000000
1!
b0111001010100000 #
1$
b0111001010100000 &
#1240000000
0!
0$
#1250000000
1!
b1110010101000001 #
1$
b1110010101000001 &
#1260000000
0!
0$
#1270000000
1!
b1100101010000010 #
1$
b1100101010000010 &
#1280000000
0!
0$
#1290000000
1!
b1001010100000101 #
1$
b1001010100000101 &
#1300000000
0!
1"
0$
1%
#1310000000
1!
1$
#1320000000
0!
0"
0$
0%
#1330000000
1!
b0010101000001010 #
1$
b0010101000001010 &
#1340000000
0!
0$
#1350000000
1!
b0101010000010100 #
1$
b0101010000010100 &
#1360000000
0!
0$
#1370000000
1!
b1010100000101001 #
1$
b1010100000101001 &
#1380000000
0!
0$
#1390000000
1!
b0101000001010011 #
1$
b0101000001010011 &
#1400000000
0!
0$
#1410000000
1!
b1010000010100111 #
1$
b1010000010100111 &
#1420000000
0!
1"
0$
1%
#1430000000
1!
1$
#1440000000
0!
0"
0$
0%
#1450000000
1!
b0100000101001111 #
1$
b0100000101001111 &
#1460000000
0!
0$
#1470000000
1!
b1000001010011110 #
1$
b1000001010011110 &
#1480000000
0!
0$
#1490000000
1!
b0000010100111101 #
1$
b0000010100111101 &
#1500000000
0!
0$
#1510000000
1!
b0000101001111010 #
1$
b0000101001111010 &
#1520000000
0!
0$
#1530000000
1!
b0001010011110100 #
1$
b0001010011110100 &
#1540000000
0!
1"
0$
1%
#1550000000
1!
1$
#1560000000
0!
0"
0$
0%
#1570000000
1!
b0010100111101000 #
1$
b0010100111101000 &
#1580000000
0!
0$
#1590000000
1!
b0101001111010000 #
1$
b0101001111010000 &
#1600000000
0!
0$
#1610000000
1!
b1010011110100001 #
1$
b1010011110100001 &
#1620000000
0!
0$
#1630000000
1!
b0100111101000011 #
1$
b0100111101000011 &
#1640000000
0!
0$
#1650000000
1!
b1001111010000110 #
1$
b1001111010000110 &
#1660000000
0!
1"
0$
1%
#1670000000
1!
1$
#1680000000
0!
0"
0$
0%
#1690000000
1!
b0011110100001100 #
1$
b0011110100001100 &
#1700000000
0!
0$
#1710000000
1!
b0111101000011000 #
1$
b0111101000011000 &
#1720000000
0!
0$
#1730000000
1!
b1111010000110000 #
1$
b1111010000110000 &
#1740000000
0!
0$
#1750000000
1!
b1110100001100001 #
1$
b1110100001100001 &
#1760000000
0!
0$
#1770000000
1!
b1101000011000010 #
1$
b1101000011000010 &
#1780000000
0!
1"
0$
1%
#1790000000
1!
1$
#1800000000
0!
0"
0$
0%
#1810000000
1!
b1010000110000101 #
1$
b1010000110000101 &
#1820000000
0!
0$
#1830000000
1!
b0100001100001011 #
1$
b0100001100001011 &
#1840000000
0!
0$
#1850000000
1!
b1000011000010110 #
1$
b1000011000010110 &
#1860000000
0!
0$
#1870000000
1!
b0000110000101101 #
1$
b0000110000101101 &
#1880000000
0!
0$
#1890000000
1!
b0001100001011011 #
1$
b0001100001011011 &
#1900000000
0!
1"
0$
1%
#1910000000
1!
1$
#1920000000
0!
0"
0$
0%
#1930000000
1!
b0011000010110110 #
1$
b0011000010110110 &
#1940000000
0!
0$
#1950000000
1!
b0110000101101101 #
1$
b0110000101101101 &
#1960000000
0!
0$
#1970000000
1!
b1100001011011011 #
1$
b1100001011011011 &
#1980000000
0!
0$
#1990000000
1!
b1000010110110110 #
1$
b1000010110110110 &
#2000000000
0!
0$
#2010000000
1!
b0000101101101101 #
1$
b0000101101101101 &
#2020000000
0!
1"
0$
1%
#2030000000
1!
1$
#2040000000
0!
0"
0$
0%
#2050000000
1!
b0001011011011011 #
1$
b0001011011011011 &
#2060000000
0!
0$
#2070000000
1!
b0010110110110110 #
1$
b0010110110110110 &
#2080000000
0!
0$
#2090000000
1!
b0101101101101101 #
1$
b0101101101101101 &
#2100000000
0!
0$
#2110000000
1!
b1011011011011010 #
1$
b1011011011011010 &
#2120000000
0!
0$
#2130000000
1!
b0110110110110100 #
1$
b0110110110110100 &
#2140000000
0!
1"
0$
1%
#2150000000
1!
1$
#2160000000
0!
0"
0$
0%
#2170000000
1!
b1101101101101000 #
1$
b1101101101101000 &
#2180000000
0!
0$
#2190000000
1!
b1011011011010001 #
1$
b1011011011010001 &
#2200000000
0!
0$
#2210000000
1!
b0110110110100010 #
1$
b0110110110100010 &
#2220000000
0!
0$
#2230000000
1!
b1101101101000101 #
1$
b1101101101000101 &
#2240000000
0!
0$
#2250000000
1!
b1011011010001011 #
1$
b1011011010001011 &
#2260000000
0!
1"
0$
1%
#2270000000
1!
1$
#2280000000
0!
0"
0$
0%
#2290000000
1!
b0110110100010111 #
1$
b0110110100010111 &
#2300000000
0!
0$
#2310000000
1!
b1101101000101110 #
1$
b1101101000101110 &
#2320000000
0!
0$
#2330000000
1!
b1011010001011101 #
1$
b1011010001011101 &
#2340000000
0!
0$
#2350000000
1!
b0110100010111010 #
1$
b0110100010111010 &
#2360000000
0!
0$
#2370000000
1!
b1101000101110100 #
1$
b1101000101110100 &
#2380000000
0!
1"
0$
1%
#2390000000
1!
1$
#2400000000
0!
0"
0$
0%
#2410000000
1!
b1010001011101000 #
1$
b1010001011101000 &
#2420000000
0!
0$
#2430000000
1!
b0100010111010001 #
1$
b0100010111010001 &
#2440000000
0!
0$
#2450000000
1!
b1000101110100011 #
1$
b1000101110100011 &
#2460000000
0!
0$
#2470000000
1!
b0001011101000110 #
1$
b0001011101000110 &
#2480000000
0!
0$
#2490000000
1!
b0010111010001101 #
1$
b0010111010001101 &
#2500000000
0!
1"
0$
1%
#2510000000
1!
1$
#2520000000
0!
0"
0$
0%
#2530000000
1!
b0101110100011010 #
1$
b0101110100011010 &
#2540000000
0!
0$
#2550000000
1!
b1011101000110101 #
1$
b1011101000110101 &
#2560000000
0!
0$
#2570000000
1!
b0111010001101010 #
1$
b0111010001101010 &
#2580000000
0!
0$
#2590000000
1!
b1110100011010101 #
1$
b1110100011010101 &
#2600000000
0!
0$
#2610000000
1!
b1101000110101011 #
1$
b1101000110101011 &
#2620000000
0!
1"
0$
1%
#2630000000
1!
1$
#2640000000
0!
0"
0$
0%
#2650000000
1!
b1010001101010111 #
1$
b1010001101010111 &
#2660000000
0!
0$
#2670000000
1!
b0100011010101110 #
1$
b0100011010101110 &
#2680000000
0!
0$
#2690000000
1!
b1000110101011100 #
1$
b1000110101011100 &
#2700000000
0!
0$
#2710000000
1!
b0001101010111001 #
1$
b0001101010111001 &
#2720000000
0!
0$
#2730000000
1!
b0011010101110010 #
1$
b0011010101110010 &
#2740000000
0!
1"
0$
1%
#2750000000
1!
1$
#2760000000
0!
0"
0$
0%
#2770000000
1!
b0110101011100101 #
1$
b0110101011100101 &
#2780000000
0!
0$
#2790000000
1!
b1101010111001011 #
1$
b1101010111001011 &
#2800000000
0!
0$
#2810000000
1!
b1010101110010111 #
1$
b1010101110010111 &
#2820000000
0!
0$
#2830000000
1!
b0101011100101110 #
1$
b0101011100101110 &
#2840000000
0!
0$
#2850000000
1!
b1010111001011100 #
1$
b1010111001011100 &
#2860000000
0!
1"
0$
1%
#2870000000
1!
1$
#2880000000
0!
0"
0$
0%
#2890000000
1!
b0101110010111000 #
1$
b0101110010111000 &
#2900000000
0!
0$
#2910000000
1!
b1011100101110001 #
1$
b1011100101110001 &
#2920000000
0!
0$
#2930000000
1!
b0111001011100010 #
1$
b0111001011100010 &
#2940000000
0!
0$
#2950000000
1!
b1110010111000101 #
1$
b1110010111000101 &
#2960000000
0!
0$
#2970000000
1!
b1100101110001010 #
1$
b1100101110001010 &
#2980000000
0!
1"
0$
1%
#2990000000
1!
1$
#3000000000
0!
0"
0$
0%
#3010000000
1!
b1001011100010101 #
1$
b1001011100010101 &
#3020000000
0!
0$
#3030000000
1!
b0010111000101011 #
1$
b0010111000101011 &
#3040000000
0!
0$
#3050000000
1!
b0101110001010110 #
1$
b0101110001010110 &
#3060000000
0!
0$
#3070000000
1!
b1011100010101101 #
1$
b1011100010101101 &
#3080000000
0!
0$
#3090000000
1!
b0111000101011011 #
1$
b0111000101011011 &
#3100000000
0!
1"
0$
1%
#3110000000
1!
1$
#3120000000
0!
0"
0$
0%
#3130000000
1!
b1110001010110110 #
1$
b1110001010110110 &
#3140000000
0!
0$
#3150000000
1!
b1100010101101101 #
1$
b1100010101101101 &
#3160000000
0!
0$
#3170000000
1!
b1000101011011011 #
1$
b1000101011011011 &
#3180000000
0!
0$
#3190000000
1!
b0001010110110111 #
1$
b0001010110110111 &
#3200000000
0!
0$
#3210000000
1!
b0010101101101110 #
1$
b0010101101101110 &
#3220000000
0!
1"
0$
1%
#3230000000
1!
1$
#3240000000
0!
0"
0$
0%
#3250000000
1!
b0101011011011100 #
1$
b0101011011011100 &
#3260000000
0!
0$
#3270000000
1!
b1010110110111001 #
1$
b1010110110111001 &
#3280000000
0!
0$
#3290000000
1!
b0101101101110010 #
1$
b0101101101110010 &
#3300000000
0!
0$
#3310000000
1!
b1011011011100101 #
1$
b1011011011100101 &
#3320000000
0!
0$
#3330000000
1!
b0110110111001011 #
1$
b0110110111001011 &
#3340000000
0!
1"
0$
1%
#3350000000
1!
1$
#3360000000
0!
0"
0$
0%
#3370000000
1!
b1101101110010111 #
1$
b1101101110010111 &
#3380000000
0!
0$
#3390000000
1!
b1011011100101110 #
1$
b1011011100101110 &
#3400000000
0!
0$
#3410000000
1!
b0110111001011101 #
1$
b0110111001011101 &
#3420000000
0!
0$
#3430000000
1!
b1101110010111010 #
1$
b1101110010111010 &
#3440000000
0!
0$
#3450000000
1!
b1011100101110100 #
1$
b1011100101110100 &
#3460000000
0!
1"
0$
1%
#3470000000
1!
1$
#3480000000
0!
0"
0$
0%
#3490000000
1!
b0111001011101000 #
1$
b0111001011101000 &
#3500000000
0!
0$
#3510000000
1!
b1110010111010001 #
1$
b1110010111010001 &
#3520000000
0!
0$
#3530000000
1!
b1100101110100011 #
1$
b1100101110100011 &
#3540000000
0!
0$
#3550000000
1!
b1001011101000111 #
1$
b1001011101000111 &
#3560000000
0!
0$
#3570000000
1!
b0010111010001110 #
1$
b0010111010001110 &
#3580000000
0!
1"
0$
1%
#3590000000
1!
1$
#3600000000
0!
0"
0$
0%
#3610000000
1!
b0101110100011100 #
1$
b0101110100011100 &
#3620000000
0!
0$
#3630000000
1!
b1011101000111001 #
1$
b1011101000111001 &
#3640000000
0!
0$
#3650000000
1!
b0111010001110010 #
1$
b0111010001110010 &
#3660000000
0!
0$
#3670000000
1!
b1110100011100100 #
1$
b1110100011100100 &
#3680000000
0!
0$
#3690000000
1!
b1101000111001000 #
1$
b1101000111001000 &
#3700000000
0!
1"
0$
1%
#3710000000
1!
1$
#3720000000
0!
0"
0$
0%
#3730000000
1!
b1010001110010001 #
1$
b1010001110010001 &
#3740000000
0!
0$
#3750000000
1!
b0100011100100010 #
1$
b0100011100100010 &
#3760000000
0!
0$
#3770000000
1!
b1000111001000100 #
1$
b1000111001000100 &
#3780000000
0!
0$
#3790000000
1!
b0001110010001000 #
1$
b0001110010001000 &
#3800000000
0!
0$
#3810000000
1!
b0011100100010001 #
1$
b0011100100010001 &
#3820000000
0!
1"
0$
1%
#3830000000
1!
1$
#3840000000
0!
0"
0$
0%
#3850000000
1!
b0111001000100011 #
1$
b0111001000100011 &
#3860000000
0!
0$
#3870000000
1!
b1110010001000111 #
1$
b1110010001000111 &
#3880000000
0!
0$
#3890000000
1!
b1100100010001110 #
1$
b1100100010001110 &
#3900000000
0!
0$
#3910000000
1!
b1001000100011101 #
1$
b1001000100011101 &
#3920000000
0!
0$
#3930000000
1!
b0010001000111011 #
1$
b0010001000111011 &
#3940000000
0!
1"
0$
1%
#3950000000
1!
1$
#3960000000
0!
0"
0$
0%
#3970000000
1!
b0100010001110111 #
1$
b0100010001110111 &
#3980000000
0!
0$
#3990000000
1!
b1000100011101111 #
1$
b1000100011101111 &
#4000000000
0!
0$
#4010000000
1!
b0001000111011110 #
1$
b0001000111011110 &
#4020000000
0!
0$
#4030000000
1!
b0010001110111100 #
1$
b0010001110111100 &
#4040000000
0!
0$
#4050000000
1!
b0100011101111001 #
1$
b0100011101111001 &
#4060000000
0!
1"
0$
1%
#4070000000
1!
1$
#4080000000
0!
0"
0$
0%
#4090000000
1!
b1000111011110011 #
1$
b1000111011110011 &
#4100000000
0!
0$
#4110000000
1!
b0001110111100111 #
1$
b0001110111100111 &
#4120000000
0!
0$
#4130000000
1!
b0011101111001111 #
1$
b0011101111001111 &
#4140000000
0!
0$
#4150000000
1!
b0111011110011110 #
1$
b0111011110011110 &
#4160000000
0!
0$
#4170000000
1!
b1110111100111100 #
1$
b1110111100111100 &
#4180000000
0!
1"
0$
1%
#4190000000
1!
1$
#4200000000
0!
0"
0$
0%
#4210000000
1!
b1101111001111001 #
1$
b1101111001111001 &
#4220000000
0!
0$
#4230000000
1!
b1011110011110010 #
1$
b1011110011110010 &
#4240000000
0!
0$
#4250000000
1!
b0111100111100100 #
1$
b0111100111100100 &
#4260000000
0!
0$
#4270000000
1!
b1111001111001001 #
1$
b1111001111001001 &
#4280000000
0!
0$
#4290000000
1!
b1110011110010010 #
1$
b1110011110010010 &
#4300000000
0!
1"
0$
1%
#4310000000
1!
1$
#4320000000
0!
0"
0$
0%
#4330000000
1!
b1100111100100101 #
1$
b1100111100100101 &
#4340000000
0!
0$
#4350000000
1!
b1001111001001011 #
1$
b1001111001001011 &
#4360000000
0!
0$
#4370000000
1!
b0011110010010110 #
1$
b0011110010010110 &
#4380000000
0!
0$
#4390000000
1!
b0111100100101101 #
1$
b0111100100101101 &
#4400000000
0!
0$
#4410000000
1!
b1111001001011011 #
1$
b1111001001011011 &
#4420000000
0!
1"
0$
1%
#4430000000
1!
1$
#4440000000
0!
0"
0$
0%
#4450000000
1!
b1110010010110111 #
1$
b1110010010110111 &
#4460000000
0!
0$
#4470000000
1!
b1100100101101111 #
1$
b1100100101101111 &
#4480000000
0!
0$
#4490000000
1!
b1001001011011111 #
1$
b1001001011011111 &
#4500000000
0!
0$
#4510000000
1!
b0010010110111111 #
1$
b0010010110111111 &
#4520000000
0!
0$
#4530000000
1!
b0100101101111111 #
1$
b0100101101111111 &
#4540000000
0!
1"
0$
1%
#4550000000
1!
1$
#4560000000
0!
0"
0$
0%
#4570000000
1!
b1001011011111111 #
1$
b1001011011111111 &
#4580000000
0!
0$
#4590000000
1!
b0010110111111111 #
1$
b0010110111111111 &
#4600000000
0!
0$
#4610000000
1!
b0101101111111111 #
1$
b0101101111111111 &
#4620000000
0!
0$
#4630000000
1!
b1011011111111111 #
1$
b1011011111111111 &
#4640000000
0!
0$
#4650000000
1!
b0110111111111110 #
1$
b0110111111111110 &
#4660000000
0!
1"
0$
1%
#4670000000
1!
1$
#4680000000
0!
0"
0$
0%
#4690000000
1!
b1101111111111100 #
1$
b1101111111111100 &
#4700000000
0!
0$
#4710000000
1!
b1011111111111000 #
1$
b1011111111111000 &
#4720000000
0!
0$
#4730000000
1!
b0111111111110000 #
1$
b0111111111110000 &
#4740000000
0!
0$
#4750000000
1!
b1111111111100000 #
1$
b1111111111100000 &
#4760000000
0!
0$
#4770000000
1!
b1111111111000000 #
1$
b1111111111000000 &
#4780000000
0!
1"
0$
1%
#4790000000
1!
1$
#4800000000
0!
0"
0$
0%
#4810000000
1!
b1111111110000000 #
1$
b1111111110000000 &
#4820000000
0!
0$
#4830000000
1!
b1111111100000000 #
1$
b1111111100000000 &
#4840000000
0!
0$
#4850000000
1!
b1111111000000000 #
1$
b1111111000000000 &
#4860000000
0!
0$
#4870000000
1!
b1111110000000000 #
1$
b1111110000000000 &
#4880000000
0!
0$
#4890000000
1!
b1111100000000000 #
1$
b1111100000000000 &
#4900000000
0!
1"
0$
1%
#4910000000
1!
1$
#4920000000
0!
0"
0$
0%
#4930000000
1!
b1111000000000000 #
1$
b1111000000000000 &
#4940000000
0!
0$
#4950000000
1!
b1110000000000000 #
1$
b1110000000000000 &
#4960000000
0!
0$
#4970000000
1!
b1100000000000000 #
1$
b1100000000000000 &
#4980000000
0!
0$
#4990000000
1!
b1000000000000001 #
1$
b1000000000000001 &
#5000000000
0!
0$
#5010000000
1!
b0000000000000010 #
1$
b0000000000000010 &
#5020000000
0!
1"
0$
1%
#5030000000
1!
1$
#5040000000
0!
0"
0$
0%
#5050000000
1!
b0000000000000101 #
1$
b0000000000000101 &
#5060000000
0!
0$
#5070000000
1!
b0000000000001011 #
1$
b0000000000001011 &
#5080000000
0!
0$
#5090000000
1!
b0000000000010111 #
1$
b0000000000010111 &
#5100000000
0!
0$
#5110000000
1!
b0000000000101110 #
1$
b0000000000101110 &
#5120000000
0!
0$
#5130000000
1!
b0000000001011101 #
1$
b0000000001011101 &
#5140000000
0!
1"
0$
1%
#5150000000
1!
1$
#5160000000
0!
0"
0$
0%
#5170000000
1!
b0000000010111010 #
1$
b0000000010111010 &
#5180000000
0!
0$
#5190000000
1!
b0000000101110100 #
1$
b0000000101110100 &
#5200000000
0!
0$
#5210000000
1!
b0000001011101000 #
1$
b0000001011101000 &
#5220000000
0!
0$
#5230000000
1!
b0000010111010001 #
1$
b0000010111010001 &
#5240000000
0!
0$
#5250000000
1!
b0000101110100010 #
1$
b0000101110100010 &
#5260000000
0!
1"
0$
1%
#5270000000
1!
1$
#5280000000
0!
0"
0$
0%
#5290000000
1!
b0001011101000101 #
1$
b0001011101000101 &
#5300000000
0!
0$
#5310000000
1!
b0010111010001011 #
1$
b0010111010001011 &
#5320000000
0!
0$
#5330000000
1!
b0101110100010110 #
1$
b0101110100010110 &
#5340000000
0!
0$
#5350000000
1!
b1011101000101101 #
1$
b1011101000101101 &
#5360000000
0!
0$
#5370000000
1!
b0111010001011011 #
1$
b0111010001011011 &
#5380000000
0!
1"
0$
1%
#5390000000
1!
1$
#5400000000
0!
0"
0$
0%
#5410000000
1!
b1110100010110110 #
1$
b1110100010110110 &
#5420000000
0!
0$
#5430000000
1!
b1101000101101101 #
1$
b1101000101101101 &
#5440000000
0!
0$
#5450000000
1!
b1010001011011011 #
1$
b1010001011011011 &
#5460000000
0!
0$
#5470000000
1!
b0100010110110110 #
1$
b0100010110110110 &
#5480000000
0!
0$
#5490000000
1!
b1000101101101101 #
1$
b1000101101101101 &
#5500000000
0!
1"
0$
1%
#5510000000
1!
1$
#5520000000
0!
0"
0$
0%
#5530000000
1!
b0001011011011010 #
1$
b0001011011011010 &
#5540000000
0!
0$
#5550000000
1!
b0010110110110100 #
1$
b0010110110110100 &
#5560000000
0!
0$
#5570000000
1!
b0101101101101001 #
1$
b0101101101101001 &
#5580000000
0!
0$
#5590000000
1!
b1011011011010010 #
1$
b1011011011010010 &
#5600000000
0!
0$
#5610000000
1!
b0110110110100100 #
1$
b0110110110100100 &
#5620000000
0!
1"
0$
1%
#5630000000
1!
1$
#5640000000
0!
0"
0$
0%
#5650000000
1!
b1101101101001001 #
1$
b1101101101001001 &
#5660000000
0!
0$
#5670000000
1!
b1011011010010011 #
1$
b1011011010010011 &
#5680000000
0!
0$
#5690000000
1!
b0110110100100110 #
1$
b0110110100100110 &
#5700000000
0!
0$
#5710000000
1!
b1101101001001101 #
1$
b1101101001001101 &
#5720000000
0!
0$
#5730000000
1!
b1011010010011011 #
1$
b1011010010011011 &
#5740000000
0!
1"
0$
1%
#5750000000
1!
1$
#5760000000
0!
0"
0$
0%
#5770000000
1!
b0110100100110110 #
1$
b0110100100110110 &
#5780000000
0!
0$
#5790000000
1!
b1101001001101100 #
1$
b1101001001101100 &
#5800000000
0!
0$
#5810000000
1!
b1010010011011001 #
1$
b1010010011011001 &
#5820000000
0!
0$
#5830000000
1!
b0100100110110010 #
1$
b0100100110110010 &
#5840000000
0!
0$
#5850000000
1!
b1001001101100101 #
1$
b1001001101100101 &
#5860000000
0!
1"
0$
1%
#5870000000
1!
1$
#5880000000
0!
0"
0$
0%
#5890000000
1!
b0010011011001010 #
1$
b0010011011001010 &
#5900000000
0!
0$
#5910000000
1!
b0100110110010100 #
1$
b0100110110010100 &
#5920000000
0!
0$
#5930000000
1!
b1001101100101001 #
1$
b1001101100101001 &
#5940000000
0!
0$
#5950000000
1!
b0011011001010010 #
1$
b0011011001010010 &
#5960000000
0!
0$
#5970000000
1!
b0110110010100101 #
1$
b0110110010100101 &
#5980000000
0!
1"
0$
1%
#5990000000
1!
1$
#6000000000
0!
0"
0$
0%
#6010000000
1!
b1101100101001011 #
1$
b1101100101001011 &
#6020000000
0!
0$
#6030000000
1!
b1011001010010111 #
1$
b1011001010010111 &
#6040000000
0!
0$
#6050000000
1!
b0110010100101110 #
1$
b0110010100101110 &
#6060000000
0!
0$
#6070000000
1!
b1100101001011101 #
1$
b1100101001011101 &
#6080000000
0!
0$
#6090000000
1!
b1001010010111010 #
1$
b1001010010111010 &
#6100000000
0!
1"
0$
1%
#6110000000
1!
1$
#6120000000
0!
0"
0$
0%
#6130000000
1!
b0010100101110101 #
1$
b0010100101110101 &
#6140000000
0!
0$
#6150000000
1!
b0101001011101011 #
1$
b0101001011101011 &
#6160000000
0!
0$
#6170000000
1!
b1010010111010110 #
1$
b1010010111010110 &
#6180000000
0!
0$
#6190000000
1!
b0100101110101100 #
1$
b0100101110101100 &
#6200000000
0!
0$
#6210000000
1!
b1001011101011000 #
1$
b1001011101011000 &
#6220000000
0!
1"
0$
1%
#6230000000
1!
1$
#6240000000
0!
0"
0$
0%
#6250000000
1!
b0010111010110001 #
1$
b0010111010110001 &
#6260000000
0!
0$
#6270000000
1!
b0101110101100011 #
1$
b0101110101100011 &
#6280000000
0!
0$
#6290000000
1!
b1011101011000110 #
1$
b1011101011000110 &
#6300000000
0!
0$
#6310000000
1!
b0111010110001101 #
1$
b0111010110001101 &
#6320000000
0!
0$
#6330000000
1!
b1110101100011011 #
1$
b1110101100011011 &
#6340000000
0!
1"
0$
1%
#6350000000
1!
1$
#6360000000
0!
0"
0$
0%
#6370000000
1!
b1101011000110111 #
1$
b1101011000110111 &
#6380000000
0!
0$
#6390000000
1!
b1010110001101110 #
1$
b1010110001101110 &
#6400000000
0!
0$
#6410000000
1!
b0101100011011101 #
1$
b0101100011011101 &
#6420000000
0!
0$
#6430000000
1!
b1011000110111011 #
1$
b1011000110111011 &
#6440000000
0!
0$
#6450000000
1!
b0110001101110110 #
1$
b0110001101110110 &
#6460000000
0!
1"
0$
1%
#6470000000
1!
1$
#6480000000
0!
0"
0$
0%
#6490000000
1!
b1100011011101100 #
1$
b1100011011101100 &
#6500000000
0!
0$
#6510000000
1!
b1000110111011001 #
1$
b1000110111011001 &
#6520000000
0!
0$
#6530000000
1!
b0001101110110011 #
1$
b0001101110110011 &
#6540000000
0!
0$
#6550000000
1!
b0011011101100110 #
1$
b0011011101100110 &
#6560000000
0!
0$
#6570000000
1!
b0110111011001100 #
1$
b0110111011001100 &
#6580000000
0!
1"
0$
1%
#6590000000
1!
1$
#6600000000
0!
0"
0$
0%
#6610000000
1!
b1101110110011001 #
1$
b1101110110011001 &
#6620000000
0!
0$
#6630000000
1!
b1011101100110010 #
1$
b1011101100110010 &
#6640000000
0!
0$
#6650000000
1!
b0111011001100100 #
1$
b0111011001100100 &
#6660000000
0!
0$
#6670000000
1!
b1110110011001001 #
1$
b1110110011001001 &
#6680000000
0!
0$
#6690000000
1!
b1101100110010010 #
1$
b1101100110010010 &
#6700000000
0!
1"
0$
1%
#6710000000
1!
1$
#6720000000
0!
0"
0$
0%
#6730000000
1!
b1011001100100100 #
1$
b1011001100100100 &
#6740000000
0!
0$
#6750000000
1!
b0110011001001001 #
1$
b0110011001001001 &
#6760000000
0!
0$
#6770000000
1!
b1100110010010011 #
1$
b1100110010010011 &
#6780000000
0!
0$
#6790000000
1!
b1001100100100110 #
1$
b1001100100100110 &
#6800000000
0!
0$
#6810000000
1!
b0011001001001100 #
1$
b0011001001001100 &
#6820000000
0!
1"
0$
1%
#6830000000
1!
1$
#6840000000
0!
0"
0$
0%
#6850000000
1!
b0110010010011000 #
1$
b0110010010011000 &
#6860000000
0!
0$
#6870000000
1!
b1100100100110000 #
1$
b1100100100110000 &
#6880000000
0!
0$
#6890000000
1!
b1001001001100000 #
1$
b1001001001100000 &
#6900000000
0!
0$
#6910000000
1!
b0010010011000000 #
1$
b0010010011000000 &
#6920000000
0!
0$
#6930000000
1!
b0100100110000000 #
1$
b0100100110000000 &
#6940000000
0!
1"
0$
1%
#6950000000
1!
1$
#6960000000
0!
0"
0$
0%
#6970000000
1!
b1001001100000000 #
1$
b1001001100000000 &
